Scheduling Algorithm: RR 5

P1
Arrival Time: 0
Burst Time: 15

P2
Arrival Time: 5
Burst Time: 10

P3
Arrival Time: 5
Burst Time: 10

P4
Arrival Time: 30
BurstTime: 1

P5
Arrival Time: 30
BurstTime: 4
